<?xml version="1.0" encoding="UTF-8"?>
<session version="1.0">
<refactoring comment="Rename type &apos;must.win.leetcode.EvalRPN&apos; to &apos;EvaluateReversePolishNotation&apos;&#x0A;- Original project: &apos;Leetcode&apos;&#x0A;- Original element: &apos;must.win.leetcode.EvalRPN&apos;&#x0A;- Renamed element: &apos;must.win.leetcode.EvaluateReversePolishNotation&apos;&#x0A;- Update references to refactored element&#x0A;- Update textual occurrences in comments and strings" description="Rename type &apos;EvalRPN&apos;" flags="589830" id="org.eclipse.jdt.ui.rename.type" input="/src&lt;must.win.leetcode{EvalRPN.java[EvalRPN" matchStrategy="1" name="EvaluateReversePolishNotation" qualified="false" references="true" similarDeclarations="false" stamp="1414741654257" textual="false" version="1.0"/>
</session>